{
   "type":"excalidraw/clipboard",
   "elements":[
      {
         "type":"line",
         "version":831,
         "versionNonce":347840291,
         "isDeleted":false,
         "id":"pxbse8T5NQH-n81j1Wvvf",
         "fillStyle":"solid",
         "strokeWidth":1,
         "strokeStyle":"solid",
         "roughness":1,
         "opacity":100,
         "angle":0,
         "x":596.501023271901,
         "y":146.21951438109153,
         "strokeColor":"#000000",
         "backgroundColor":"#fa5252",
         "width":11.98502482068481,
         "height":17.470707823187162,
         "seed":1889498255,
         "groupIds":[
            "iK1XCwkHSJD-UCwmtt5hK"
         ],
         "strokeSharpness":"sharp",
         "boundElements":[

         ],
         "updated":1657543572125,
         "link":null,
         "locked":false,
         "startBinding":null,
         "endBinding":null,
         "lastCommittedPoint":null,
         "startArrowhead":null,
         "endArrowhead":null,
         "points":[
            [
               0,
               0
            ],
            [
               -0.17888096747294693,
               17.470707823187162
            ],
            [
               4.770159132610968,
               11.567635896581287
            ],
            [
               11.806143853211863,
               11.686889874896544
            ],
            [
               0,
               0
            ]
         ]
      },
      {
         "type":"line",
         "version":366,
         "versionNonce":1571526797,
         "isDeleted":false,
         "id":"A1KLh3efm8tcS-WIEV5Dy",
         "fillStyle":"solid",
         "strokeWidth":1,
         "strokeStyle":"solid",
         "roughness":1,
         "opacity":100,
         "angle":0,
         "x":601.2154504553954,
         "y":158.27994121071137,
         "strokeColor":"#000000",
         "backgroundColor":"#fa5252",
         "width":3.013941539197429,
         "height":6.243164616908796,
         "seed":687868591,
         "groupIds":[
            "iK1XCwkHSJD-UCwmtt5hK"
         ],
         "strokeSharpness":"sharp",
         "boundElements":[

         ],
         "updated":1657543572125,
         "link":null,
         "locked":false,
         "startBinding":null,
         "endBinding":null,
         "lastCommittedPoint":null,
         "startArrowhead":null,
         "endArrowhead":null,
         "points":[
            [
               0,
               0
            ],
            [
               3.013941539197429,
               6.243164616908796
            ]
         ]
      }
   ],
   "files":{

   }
}